{
  "settings": {
    "index": {
      "analysis": {
        "analyzer": {
          "default": {
            "type": "english"
          }
        }
      }
    }
  },
  "mappings": {
    "training_video": {
      "properties": {
        "author": {
          "properties": {
            "created_at": {
              "type": "date",
              "include_in_all": false
            },
            "email": {
              "type": "text",
              "fields": {
                "keyword": {
                  "type": "keyword",
                  "ignore_above": 256
                }
              },
              "include_in_all": false
            },
            "firstName": {
              "type": "text",
              "fields": {
                "keyword": {
                  "type": "keyword",
                  "ignore_above": 256
                }
              }
            },
            "id": {
              "type": "long",
              "include_in_all": false
            },
            "lastName": {
              "type": "text",
              "fields": {
                "keyword": {
                  "type": "keyword",
                  "ignore_above": 256
                }
              }
            },
            "profileImageURI": {
              "type": "keyword",
              "index": false
            },
            "trainingCompany": {
              "properties": {
                "created_at": {
                  "type": "date",
                  "index": false
                },
                "id": {
                  "type": "long",
                  "include_in_all": false
                },
                "name": {
                  "type": "text",
                  "fields": {
                    "keyword": {
                      "type": "keyword",
                      "ignore_above": 256
                    }
                  }
                },
                "updated_at": {
                  "type": "date",
                  "include_in_all": false
                }
              }
            },
            "trainingCompanyId": {
              "type": "long",
              "include_in_all": false
            },
            "updated_at": {
              "type": "date",
              "include_in_all": false
            }
          }
        },
        "body": {
          "properties": {
            "actions": {
              "properties": {
                "id": {
                  "type": "keyword",
                  "index": false
                },
                "text": {
                  "type": "text"
                }
              }
            },
            "title": {
              "type": "text"
            },
            "type": {
              "type": "keyword"
            },
            "video": {
              "properties": {
                "difficultyLevel": {
                  "type": "keyword"
                },
                "minuteEstimate": {
                  "type": "long"
                },
                "previewImageURI": {
                  "type": "keyword",
                  "index": false
                },
                "videoURI": {
                  "type": "keyword",
                  "index": false
                }
              }
            }
          }
        },
        "coachId": {
          "type": "long",
          "include_in_all": false
        },
        "commentCount": {
          "type": "long",
          "include_in_all": false
        },
        "created_at": {
          "type": "date",
          "include_in_all": false
        },
        "id": {
          "type": "long",
          "include_in_all": false
        },
        "likeCount": {
          "type": "long",
          "include_in_all": false
        },
        "tags": {
          "properties": {
            "body": {
              "type": "text",
              "fields": {
                "keyword": {
                  "type": "keyword",
                  "ignore_above": 256
                }
              }
            },
            "contentId": {
              "type": "long",
              "index": false
            },
            "created_at": {
              "type": "date",
              "index": false
            },
            "id": {
              "type": "long",
              "index": false
            },
            "updated_at": {
              "type": "date",
              "index": false
            },
            "userId": {
              "type": "keyword",
              "index": false
            }
          }
        },
        "updated_at": {
          "type": "date"
        }
      }
    },
    "daily_action": {
      "properties": {
        "author": {
          "properties": {
            "created_at": {
              "type": "date",
              "include_in_all": false
            },
            "email": {
              "type": "text",
              "fields": {
                "keyword": {
                  "type": "keyword",
                  "ignore_above": 256
                }
              },
              "include_in_all": false
            },
            "firstName": {
              "type": "text",
              "fields": {
                "keyword": {
                  "type": "keyword",
                  "ignore_above": 256
                }
              }
            },
            "id": {
              "type": "long",
              "include_in_all": false
            },
            "lastName": {
              "type": "text",
              "fields": {
                "keyword": {
                  "type": "keyword",
                  "ignore_above": 256
                }
              }
            },
            "profileImageURI": {
              "type": "keyword",
              "index": false
            },
            "trainingCompany": {
              "properties": {
                "created_at": {
                  "type": "date",
                  "index": false
                },
                "id": {
                  "type": "long",
                  "include_in_all": false
                },
                "name": {
                  "type": "text",
                  "fields": {
                    "keyword": {
                      "type": "keyword",
                      "ignore_above": 256
                    }
                  }
                },
                "updated_at": {
                  "type": "date",
                  "include_in_all": false
                }
              }
            },
            "trainingCompanyId": {
              "type": "long",
              "include_in_all": false
            },
            "updated_at": {
              "type": "date",
              "include_in_all": false
            }
          }
        },
        "body": {
          "properties": {
            "actions": {
              "properties": {
                "id": {
                  "type": "keyword",
                  "index": false
                },
                "text": {
                  "type": "text"
                }
              }
            },
            "contentImageURI": {
              "type": "keyword",
              "index": false
            },
            "text": {
              "type": "text"
            },
            "type": {
              "type": "keyword"
            }
          }
        },
        "coachId": {
          "type": "long",
          "include_in_all": false
        },
        "commentCount": {
          "type": "long",
          "include_in_all": false
        },
        "created_at": {
          "type": "date",
          "include_in_all": false
        },
        "id": {
          "type": "long",
          "include_in_all": false
        },
        "likeCount": {
          "type": "long",
          "include_in_all": false
        },
        "tags": {
          "properties": {
            "body": {
              "type": "text",
              "fields": {
                "keyword": {
                  "type": "keyword",
                  "ignore_above": 256
                }
              }
            },
            "contentId": {
              "type": "long",
              "index": false
            },
            "created_at": {
              "type": "date",
              "index": false
            },
            "id": {
              "type": "long",
              "index": false
            },
            "updated_at": {
              "type": "date",
              "index": false
            },
            "userId": {
              "type": "keyword",
              "index": false
            }
          }
        },
        "updated_at": {
          "type": "date"
        }
      }
    }
  }
}
